%!PS-Adobe-2.0 EPSF-2.0
%%BoundingBox: 140 360 490 570
%%HiResBoundingBox: 140.000000 360.000000 490.000000 570.000000
%%Creator: MOPLOT (M. P. Fuelscher)
%%Title:
%%CreationDate:
%%DocumentFont:
%%EndComments
% EPSF created by ps2eps 1.68
%%BeginProlog
save
countdictstack
mark
newpath
/showpage {} def
/setpagedevice {pop} def
%%EndProlog
%%Page 1 1
 /Helvetica findfont 13 scalefont setfont
%---
%0.1 setlinewidth
%/llx 140 def
%/lly 360 def
%/urx 490 def
%/ury 570 def
%llx lly moveto
%llx ury lineto
%urx ury lineto
%urx lly lineto
%closepath stroke
%---
 1 setlinecap 1 setlinejoin
 0.629921269302987974 0.629921269302987974  scale
 150 500 translate
 /ball {
 489 188 4  0 360 arc
 1.0 setgray fill
 489 188 4  0 360 arc
 0.0 setgray stroke 
 498 166  moveto
 (H1) show } def
 ball
 /ball {
 226 299 4  0 360 arc
 1.0 setgray fill
 226 299 4  0 360 arc
 0.0 setgray stroke 
 210 308  moveto
 (H2) show } def
 ball
 /ball {
 529 366 7  0 360 arc
 1.0 setgray fill
 529 366 7  0 360 arc
 0.0 setgray stroke 
 541 378  moveto
 (H5) show } def
 ball
 /ball {
 190 116 7  0 360 arc
 1.0 setgray fill
 190 116 7  0 360 arc
 0.0 setgray stroke 
 171 91  moveto
 (H6) show } def
 ball
 /box {
 newpath
 491 189  moveto
 506 233  lineto
 501 234  lineto
 489 190  lineto
 closepath
 0.0 setgray fill } def
 box
 /box {
 newpath
 525 359  moveto
 506 254  lineto
 510 254  lineto
 529 358  lineto
 closepath
 0.0 setgray fill } def
 box
 /ball {
 505 239 15  0 360 arc
 1.0 setgray fill
 505 239 15  0 360 arc
 0.0 setgray stroke 
 496 234  moveto
 (C2) show } def
 ball
 /box {
 newpath
 224 297  moveto
 213 250  lineto
 218 249  lineto
 227 297  lineto
 closepath
 0.0 setgray fill } def
 box
 /box {
 newpath
 193 124  moveto
 213 227  lineto
 209 228  lineto
 189 124  lineto
 closepath
 0.0 setgray fill } def
 box
 /ball {
 214 242 15  0 360 arc
 1.0 setgray fill
 214 242 15  0 360 arc
 0.0 setgray stroke 
 205 237  moveto
 (C3) show } def
 ball
 /box {
 newpath
 599 197  moveto
 518 235  lineto
 516 231  lineto
 596 191  lineto
 closepath
 0.0 setgray fill } def
 box
 /ball {
 608 189 12  0 360 arc
 1.0 setgray fill
 608 189 12  0 360 arc
 0.0 setgray stroke 
 599 184  moveto
 (H3) show } def
 ball
 /box {
 newpath
 122 282  moveto
 201 246  lineto
 203 250  lineto
 125 288  lineto
 closepath
 0.0 setgray fill } def
 box
 /ball {
 113 290 13  0 360 arc
 1.0 setgray fill
 113 290 13  0 360 arc
 0.0 setgray stroke 
 104 285  moveto
 (H4) show } def
 ball
 /box {
 newpath
 227 240  moveto
 337 235  lineto
 338 244  lineto
 227 244  lineto
 closepath
 0.0 setgray fill } def
 box
 /box {
 newpath
 493 242  moveto
 384 243  lineto
 384 234  lineto
 493 237  lineto
 closepath
 0.0 setgray fill } def
 box
 /ball {
 361 239 28  0 360 arc
 1.0 setgray fill
 361 239 28  0 360 arc
 0.0 setgray stroke 
 352 234  moveto
 (C1) show } def
 ball
 showpage
% ------------------------------
%%Trailer:
%%Trailer
cleartomark
countdictstack
exch sub { end } repeat
restore
%%EOF
